{"count":361,"next":"https://ll.thespacedevs.com/2.2.0/launch/upcoming/?limit=6&offset=6","previous":null,"results":[{"id":"f98f21cc-5a35-4d64-953c-277a9212032e","url":"https://ll.thespacedevs.com/2.2.0/launch/f98f21cc-5a35-4d64-953c-277a9212032e/","slug":"long-march-8a-satnet-leo-group-14","name":"Long March 8A | SatNet LEO Group 14","status":{"id":3,"name":"Launch Successful","abbrev":"Success","description":"The launch vehicle successfully inserted its payload(s) into the target orbit(s)."},"last_updated":"2025-12-06T08:30:46Z","net":"2025-12-06T07:53:00Z","window_end":"2025-12-06T08:10:00Z","window_start":"2025-12-06T07:45:00Z","net_precision":{"id":1,"name":"Minute","abbrev":"MIN","description":"The T-0 is accurate to the minute."},"probability":null,"weather_concerns":null,"holdreason":"","failreason":"","hashtag":null,"launch_service_provider":{"id":88,"url":"https://ll.thespacedevs.com/2.2.0/agencies/88/","name":"China Aerospace Science and Technology Corporation","type":"Government"},"rocket":{"id":8794,"configuration":{"id":518,"url":"https://ll.thespacedevs.com/2.2.0/config/launcher/518/","name":"Long March 8A","family":"Long March","full_name":"Long March 8A","variant":"A"}},"mission":{"id":7385,"name":"SatNet LEO Group 14","description":"A batch of 9 Low Earth Orbit communication satellites for the Chinese state owned SatNet constellation operated by the China Satellite Network Group.\r\n\r\nThe constellation will eventually consists of 13000 satellites.","launch_designator":null,"type":"Communications","orbit":{"id":8,"name":"Low Earth Orbit","abbrev":"LEO"},"agencies":[],"info_urls":[],"vid_urls":[]},"pad":{"id":218,"url":"https://ll.thespacedevs.com/2.2.0/pad/218/","agency_id":null,"name":"Commercial LC-1","description":"","info_url":null,"wiki_url":"https://en.wikipedia.org/wiki/Wenchang_Commercial_Space_Launch_Site","map_url":"https://www.google.com/maps?q=19.597275,110.930753","latitude":"19.597275","longitude":"110.930753","location":{"id":8,"url":"https://ll.thespacedevs.com/2.2.0/location/8/","name":"Wenchang Space Launch Site, People's Republic of China","country_code":"CHN","description":"The Wenchang Space Launch Site is a rocket launch site located in Wenchang on the island of Hainan, in China.\r\n\r\nFormally a suborbital test center, it currently serves as China's southernmost spaceport. The site was selected for its low latitude, 19° north of the equator, allowing for larger payloads to be launched. It is capable of launching the Long March 5, the heaviest Chinese rocket. Unlike launch facilities on the mainland, Wenchang uses its seaport for deliveries.","map_image":"https://thespacedevs-prod.nyc3.digitaloceanspaces.com/media/map_images/location_8_20200803142445.jpg","timezone_name":"Asia/Shanghai","total_launch_count":51,"total_landing_count":0},"country_code":"CHN","map_image":"https://thespacedevs-prod.nyc3.digitaloceanspaces.com/media/map_images/pad_commercial_lc-1_20231225074041.jpg","total_launch_count":5,"orbital_launch_attempt_count":5},"webcast_live":false,"image":"https://thespacedevs-prod.nyc3.digitaloceanspaces.com/media/images/cz-8a_launch_2_image_20251206093107.jpeg","infographic":null,"program":[],"orbital_launch_attempt_count":7141,"location_launch_attempt_count":51,"pad_launch_attempt_count":5,"agency_launch_attempt_count":559,"orbital_launch_attempt_count_year":292,"location_launch_attempt_count_year":17,"pad_launch_attempt_count_year":5,"agency_launch_attempt_count_year":58,"type":"normal"},{"id":"e9a5374e-b091-45dc-830c-d2ffa1b1ed47","url":"https://ll.thespacedevs.com/2.2.0/launch/e9a5374e-b091-45dc-830c-d2ffa1b1ed47/","slug":"falcon-9-block-5-starlink-group-11-15","name":"Falcon 9 Block 5 | Starlink Group 11-15","status":{"id":1,"name":"Go for Launch","abbrev":"Go","description":"Current T-0 confirmed by official or reliable sources."},"last_updated":"2025-12-06T18:09:21Z","net":"2025-12-07T17:58:30Z","window_end":"2025-12-07T20:13:00Z","window_start":"2025-12-07T16:13:00Z","net_precision":{"id":0,"name":"Second","abbrev":"SEC","description":"The T-0 is accurate to the second."},"probability":null,"weather_concerns":null,"holdreason":"","failreason":"","hashtag":null,"launch_service_provider":{"id":121,"url":"https://ll.thespacedevs.com/2.2.0/agencies/121/","name":"SpaceX","type":"Commercial"},"rocket":{"id":8807,"configuration":{"id":164,"url":"https://ll.thespacedevs.com/2.2.0/config/launcher/164/","name":"Falcon 9","family":"Falcon","full_name":"Falcon 9 Block 5","variant":"Block 5"}},"mission":{"id":7398,"name":"Starlink Group 11-15","description":"A batch of 28 satellites for the Starlink mega-constellation - SpaceX's project for space-based Internet communication system.","launch_designator":null,"type":"Communications","orbit":{"id":8,"name":"Low Earth Orbit","abbrev":"LEO"},"agencies":[{"id":121,"url":"https://ll.thespacedevs.com/2.2.0/agencies/121/","name":"SpaceX","featured":true,"type":"Commercial","country_code":"USA","abbrev":"SpX","description":"Space Exploration Technologies Corp., known as SpaceX, is an American aerospace manufacturer and space transport services company headquartered in Hawthorne, California. It was founded in 2002 by entrepreneur Elon Musk with the goal of reducing space transportation costs and enabling the colonization of Mars. SpaceX operates from many pads, on the East Coast of the US they operate from SLC-40 at Cape Canaveral Space Force Station and historic LC-39A at Kennedy Space Center. They also operate from SLC-4E at Vandenberg Space Force Base, California, usually for polar launches. Another launch site is being developed at Boca Chica, Texas.","administrator":"CEO: Elon Musk","founding_year":"2002","launchers":"Falcon | Starship","spacecraft":"Dragon","launch_library_url":null,"total_launch_count":610,"consecutive_successful_launches":95,"successful_launches":595,"failed_launches":15,"pending_launches":118,"consecutive_successful_landings":94,"successful_landings":555,"failed_landings":27,"attempted_landings":581,"info_url":"https://www.spacex.com/","wiki_url":"https://en.wikipedia.org/wiki/SpaceX","logo_url":"https://thespacedevs-prod.nyc3.digitaloceanspaces.com/media/images/spacex_logo_20220826094919.png","image_url":"https://thespacedevs-prod.nyc3.digitaloceanspaces.com/media/images/spacex_image_20190207032501.jpeg","nation_url":"https://thespacedevs-prod.nyc3.digitaloceanspaces.com/media/images/spacex_nation_20230531064544.jpg"}],"info_urls":[],"vid_urls":[]},"pad":{"id":16,"url":"https://ll.thespacedevs.com/2.2.0/pad/16/","agency_id":null,"name":"Space Launch Complex 4E","description":"Space Launch Complex 4 East (SLC-4E) is a launch site at Vandenberg Space Force Base, California, U.S.\r\n\r\nThe pad was previously used by Atlas and Titan rockets between 1963 and 2005. The pad was built for use by Atlas-Agena rockets, but was later rebuilt to handle Titan rockets.","info_url":null,"wiki_url":"https://en.wikipedia.org/wiki/Vandenberg_Space_Launch_Complex_4#SLC-4E","map_url":"https://www.google.com/maps?q=34.632,-120.611","latitude":"34.632","longitude":"-120.611","location":{"id":11,"url":"https://ll.thespacedevs.com/2.2.0/location/11/","name":"Vandenberg SFB, CA, USA","country_code":"USA","description":"Vandenberg Space Force Base is a United States Space Force Base in Santa Barbara County, California. Established in 1941, Vandenberg Space Force Base is a space launch base, launching spacecraft from the Western Range, and also performs missile testing. The United States Space Force's Space Launch Delta 30 serves as the host delta for the base, equivalent to an Air Force air base wing. In addition to its military space launch mission, Vandenberg Space Force Base also hosts space launches for civil and commercial space entities, such as NASA and SpaceX.","map_image":"https://thespacedevs-prod.nyc3.digitaloceanspaces.com/media/map_images/location_11_20200803142416.jpg","timezone_name":"America/Los_Angeles","total_launch_count":848,"total_landing_count":30},"country_code":"USA","map_image":"https://thespacedevs-prod.nyc3.digitaloceanspaces.com/media/map_images/pad_16_20200803143532.jpg","total_launch_count":234,"orbital_launch_attempt_count":234},"webcast_live":false,"image":"https://thespacedevs-prod.nyc3.digitaloceanspaces.com/media/images/falcon2520925_image_20221009234147.png","infographic":null,"program":[{"id":25,"url":"https://ll.thespacedevs.com/2.2.0/program/25/","name":"Starlink","description":"Starlink is a satellite internet constellation operated by American aerospace company SpaceX","agencies":[{"id":121,"url":"https://ll.thespacedevs.com/2.2.0/agencies/121/","name":"SpaceX","type":"Commercial"}],"image_url":"https://thespacedevs-prod.nyc3.digitaloceanspaces.com/media/images/starlink_program_20231228154508.jpeg","start_date":"2018-02-22T14:17:00Z","end_date":null,"info_url":"https://starlink.com","wiki_url":"https://en.wikipedia.org/wiki/Starlink","mission_patches":[{"id":7,"name":"Space X Starlink Mission Patch","priority":10,"image_url":"https://thespacedevs-prod.nyc3.digitaloceanspaces.com/media/mission_patch_images/space2520x252_mission_patch_20221011205756.png","agency":{"id":121,"url":"https://ll.thespacedevs.com/2.2.0/agencies/121/","name":"SpaceX","type":"Commercial"}}],"type":{"id":3,"name":"Communication Constellation"}}],"orbital_launch_attempt_count":7142,"location_launch_attempt_count":849,"pad_launch_attempt_count":235,"agency_launch_attempt_count":611,"orbital_launch_attempt_count_year":293,"location_launch_attempt_count_year":63,"pad_launch_attempt_count_year":61,"agency_launch_attempt_count_year":162,"type":"normal"},{"id":"c1fb73cf-ad9a-4305-bd11-d61fff369afe","url":"https://ll.thespacedevs.com/2.2.0/launch/c1fb73cf-ad9a-4305-bd11-d61fff369afe/","slug":"falcon-9-block-5-starlink-group-6-92","name":"Falcon 9 Block 5 | Starlink Group 6-92","status":{"id":1,"name":"Go for Launch","abbrev":"Go","description":"Current T-0 confirmed by official or reliable sources."},"last_updated":"2025-12-06T17:13:05Z","net":"2025-12-07T21:40:00Z","window_end":"2025-12-08T00:40:00Z","window_start":"2025-12-07T21:40:00Z","net_precision":{"id":1,"name":"Minute","abbrev":"MIN","description":"The T-0 is accurate to the minute."},"probability":50,"weather_concerns":"Cumulus Cloud Rule, Anvil Cloud Rules, Thick Cloud Layers Rule","holdreason":"","failreason":"","hashtag":null,"launch_service_provider":{"id":121,"url":"https://ll.thespacedevs.com/2.2.0/agencies/121/","name":"SpaceX","type":"Commercial"},"rocket":{"id":8814,"configuration":{"id":164,"url":"https://ll.thespacedevs.com/2.2.0/config/launcher/164/","name":"Falcon 9","family":"Falcon","full_name":"Falcon 9 Block 5","variant":"Block 5"}},"mission":{"id":7405,"name":"Starlink Group 6-92","description":"A batch of 29 satellites for the Starlink mega-constellation - SpaceX's project for space-based Internet communication system.","launch_designator":null,"type":"Communications","orbit":{"id":8,"name":"Low Earth Orbit","abbrev":"LEO"},"agencies":[{"id":121,"url":"https://ll.thespacedevs.com/2.2.0/agencies/121/","name":"SpaceX","featured":true,"type":"Commercial","country_code":"USA","abbrev":"SpX","description":"Space Exploration Technologies Corp., known as SpaceX, is an American aerospace manufacturer and space transport services company headquartered in Hawthorne, California. It was founded in 2002 by entrepreneur Elon Musk with the goal of reducing space transportation costs and enabling the colonization of Mars. SpaceX operates from many pads, on the East Coast of the US they operate from SLC-40 at Cape Canaveral Space Force Station and historic LC-39A at Kennedy Space Center. They also operate from SLC-4E at Vandenberg Space Force Base, California, usually for polar launches. Another launch site is being developed at Boca Chica, Texas.","administrator":"CEO: Elon Musk","founding_year":"2002","launchers":"Falcon | Starship","spacecraft":"Dragon","launch_library_url":null,"total_launch_count":610,"consecutive_successful_launches":95,"successful_launches":595,"failed_launches":15,"pending_launches":118,"consecutive_successful_landings":94,"successful_landings":555,"failed_landings":27,"attempted_landings":581,"info_url":"https://www.spacex.com/","wiki_url":"https://en.wikipedia.org/wiki/SpaceX","logo_url":"https://thespacedevs-prod.nyc3.digitaloceanspaces.com/media/images/spacex_logo_20220826094919.png","image_url":"https://thespacedevs-prod.nyc3.digitaloceanspaces.com/media/images/spacex_image_20190207032501.jpeg","nation_url":"https://thespacedevs-prod.nyc3.digitaloceanspaces.com/media/images/spacex_nation_20230531064544.jpg"}],"info_urls":[],"vid_urls":[]},"pad":{"id":87,"url":"https://ll.thespacedevs.com/2.2.0/pad/87/","agency_id":121,"name":"Launch Complex 39A","description":"","info_url":null,"wiki_url":"https://en.wikipedia.org/wiki/Kennedy_Space_Center_Launch_Complex_39#Launch_Pad_39A","map_url":"https://www.google.com/maps?q=28.60822681,-80.60428186","latitude":"28.60822681","longitude":"-80.60428186","location":{"id":27,"url":"https://ll.thespacedevs.com/2.2.0/location/27/","name":"Kennedy Space Center, FL, USA","country_code":"USA","description":"The John F. Kennedy Space Center, located on Merritt Island, Florida, is one of NASA's ten field centers. Since 1968, KSC has been NASA's primary launch center of American spaceflight, research, and technology. Launch operations for the Apollo, Skylab and Space Shuttle programs were carried out from Kennedy Space Center Launch Complex 39 and managed by KSC. Located on the east coast of Florida, KSC is adjacent to Cape Canaveral Space Force Station (CCSFS).","map_image":"https://thespacedevs-prod.nyc3.digitaloceanspaces.com/media/map_images/location_27_20200803142447.jpg","timezone_name":"America/New_York","total_launch_count":277,"total_landing_count":0},"country_code":"USA","map_image":"https://thespacedevs-prod.nyc3.digitaloceanspaces.com/media/map_images/pad_87_20200803143537.jpg","total_launch_count":219,"orbital_launch_attempt_count":218},"webcast_live":false,"image":"https://thespacedevs-prod.nyc3.digitaloceanspaces.com/media/images/falcon2520925_image_20221009234147.png","infographic":null,"program":[{"id":25,"url":"https://ll.thespacedevs.com/2.2.0/program/25/","name":"Starlink","description":"Starlink is a satellite internet constellation operated by American aerospace company SpaceX","agencies":[{"id":121,"url":"https://ll.thespacedevs.com/2.2.0/agencies/121/","name":"SpaceX","type":"Commercial"}],"image_url":"https://thespacedevs-prod.nyc3.digitaloceanspaces.com/media/images/starlink_program_20231228154508.jpeg","start_date":"2018-02-22T14:17:00Z","end_date":null,"info_url":"https://starlink.com","wiki_url":"https://en.wikipedia.org/wiki/Starlink","mission_patches":[{"id":7,"name":"Space X Starlink Mission Patch","priority":10,"image_url":"https://thespacedevs-prod.nyc3.digitaloceanspaces.com/media/mission_patch_images/space2520x252_mission_patch_20221011205756.png","agency":{"id":121,"url":"https://ll.thespacedevs.com/2.2.0/agencies/121/","name":"SpaceX","type":"Commercial"}}],"type":{"id":3,"name":"Communication Constellation"}}],"orbital_launch_attempt_count":7143,"location_launch_attempt_count":278,"pad_launch_attempt_count":220,"agency_launch_attempt_count":612,"orbital_launch_attempt_count_year":294,"location_launch_attempt_count_year":26,"pad_launch_attempt_count_year":26,"agency_launch_attempt_count_year":163,"type":"normal"},{"id":"5130a1e5-5a3e-4d2d-a4b8-28a9e2a5b677","url":"https://ll.thespacedevs.com/2.2.0/launch/5130a1e5-5a3e-4d2d-a4b8-28a9e2a5b677/","slug":"long-march-6a-unknown-payload","name":"Long March 6A | Unknown Payload","status":{"id":1,"name":"Go for Launch","abbrev":"Go","description":"Current T-0 confirmed by official or reliable sources."},"last_updated":"2025-12-04T16:59:56Z","net":"2025-12-08T22:10:00Z","window_end":"2025-12-08T22:19:00Z","window_start":"2025-12-08T22:03:00Z","net_precision":{"id":2,"name":"Hour","abbrev":"HR","description":"The T-0 is accurate to the hour."},"probability":null,"weather_concerns":null,"holdreason":"","failreason":"","hashtag":null,"launch_service_provider":{"id":88,"url":"https://ll.thespacedevs.com/2.2.0/agencies/88/","name":"China Aerospace Science and Technology Corporation","type":"Government"},"rocket":{"id":8832,"configuration":{"id":478,"url":"https://ll.thespacedevs.com/2.2.0/config/launcher/478/","name":"Long March 6A","family":"Long March","full_name":"Long March 6A","variant":"A"}},"mission":{"id":7423,"name":"Unknown Payload","description":"Details TBD.","launch_designator":null,"type":"Unknown","orbit":{"id":25,"name":"Unknown","abbrev":"N/A"},"agencies":[],"info_urls":[],"vid_urls":[]},"pad":{"id":200,"url":"https://ll.thespacedevs.com/2.2.0/pad/200/","agency_id":null,"name":"Launch Complex 9A","description":"","info_url":null,"wiki_url":null,"map_url":"https://www.google.com/maps?q=38.8583,111.5802","latitude":"38.8583","longitude":"111.5802","location":{"id":19,"url":"https://ll.thespacedevs.com/2.2.0/location/19/","name":"Taiyuan Satellite Launch Center, People's Republic of China","country_code":"CHN","description":"The Taiyuan Satellite Launch Center is a People's Republic of China space and defense launch facility. It is situated in Kelan County, Xinzhou, Shanxi Province and is the second of four launch sites having been founded in March 1966 and coming into full operation in 1968.","map_image":"https://thespacedevs-prod.nyc3.digitaloceanspaces.com/media/map_images/location_19_20200803142421.jpg","timezone_name":"Asia/Shanghai","total_launch_count":147,"total_landing_count":0},"country_code":"CHN","map_image":"https://thespacedevs-prod.nyc3.digitaloceanspaces.com/media/map_images/pad_launch_complex_9a_20220330003717.jpg","total_launch_count":19,"orbital_launch_attempt_count":19},"webcast_live":false,"image":"https://thespacedevs-prod.nyc3.digitaloceanspaces.com/media/images/long_march_6a__image_20250906195620.jpg","infographic":null,"program":[],"orbital_launch_attempt_count":7144,"location_launch_attempt_count":148,"pad_launch_attempt_count":20,"agency_launch_attempt_count":560,"orbital_launch_attempt_count_year":295,"location_launch_attempt_count_year":11,"pad_launch_attempt_count_year":10,"agency_launch_attempt_count_year":59,"type":"normal"},{"id":"de6db617-3d40-414a-86d6-f365b130df30","url":"https://ll.thespacedevs.com/2.2.0/launch/de6db617-3d40-414a-86d6-f365b130df30/","slug":"electron-raise-and-shine-raise-4","name":"Electron | Raise and Shine (RAISE-4)","status":{"id":1,"name":"Go for Launch","abbrev":"Go","description":"Current T-0 confirmed by official or reliable sources."},"last_updated":"2025-12-06T01:15:41Z","net":"2025-12-09T03:00:00Z","window_end":"2025-12-09T03:00:00Z","window_start":"2025-12-09T03:00:00Z","net_precision":{"id":1,"name":"Minute","abbrev":"MIN","description":"The T-0 is accurate to the minute."},"probability":null,"weather_concerns":null,"holdreason":"","failreason":"","hashtag":null,"launch_service_provider":{"id":147,"url":"https://ll.thespacedevs.com/2.2.0/agencies/147/","name":"Rocket Lab","type":"Commercial"},"rocket":{"id":186,"configuration":{"id":26,"url":"https://ll.thespacedevs.com/2.2.0/config/launcher/26/","name":"Electron","family":"","full_name":"Electron","variant":""}},"mission":{"id":6304,"name":"Raise and Shine (RAISE-4)","description":"RAISE-4 (RApid Innovative payload demonstration Satellite-4) is a Japan Aerospace Exploration Agency (JAXA) satellite for on-orbit demonstrations of 15 demonstration components and equipment selected by public solicitation. The satellite will be operated in response to requests from the demonstration theme proposers, and will provide experimental data of the demonstration devices and environmental data during the experiments.\r\n\r\n6 of the demonstration payload, as well as as well as 4 cubesats originally planned to ride on the same launch vehicle, are re-flight of those planned for RAISE-3, which failed to reach orbit in October 2022.\r\n\r\nThe launch vehicle was switched from Epsilon-S to Rocket Lab's Electron due to continuous testing problems with the Epsilon-S' 2nd stage motor. The original 8 hitch-hiking cubesats will be launched on another Electron rocket later.","launch_designator":null,"type":"Technology","orbit":{"id":17,"name":"Sun-Synchronous Orbit","abbrev":"SSO"},"agencies":[{"id":37,"url":"https://ll.thespacedevs.com/2.2.0/agencies/37/","name":"Japan Aerospace Exploration Agency","featured":true,"type":"Government","country_code":"JPN","abbrev":"JAXA","description":"The Japan Aerospace Exploration Agency (JAXA) is Japan's national aero-space agency. Through the merger of three previously independent organizations, JAXA was formed on 1 October 2003. JAXA is responsible for research, technology development and the launch of satellites into orbit, and is involved in many more advanced missions, such as asteroid exploration and possible manned exploration of the Moon. JAXA launch their Epsilon vehicle from the Uchinoura Space Center and their H-II vehicles from the Tanegashima Space Center.","administrator":"Administrator: Hiroshi Yamakawa","founding_year":"2003","launchers":"H-II","spacecraft":"","launch_library_url":null,"total_launch_count":37,"consecutive_successful_launches":2,"successful_launches":33,"failed_launches":4,"pending_launches":2,"consecutive_successful_landings":0,"successful_landings":0,"failed_landings":0,"attempted_landings":0,"info_url":"https://www.jaxa.jp/","wiki_url":"https://en.wikipedia.org/wiki/Japan_Aerospace_Exploration_Agency","logo_url":"https://thespacedevs-prod.nyc3.digitaloceanspaces.com/media/images/japan2520aerospace2520exploration2520agency_logo_20190207032440.png","image_url":"https://thespacedevs-prod.nyc3.digitaloceanspaces.com/media/images/japan2520aerospace2520exploration2520agency_image_20190207032440.jpeg","nation_url":"https://thespacedevs-prod.nyc3.digitaloceanspaces.com/media/images/japan2520aerospace2520exploration2520agency_nation_20230531052930.png"}],"info_urls":[],"vid_urls":[]},"pad":{"id":185,"url":"https://ll.thespacedevs.com/2.2.0/pad/185/","agency_id":147,"name":"Rocket Lab Launch Complex 1B","description":"","info_url":null,"wiki_url":"https://en.wikipedia.org/wiki/Rocket_Lab_Launch_Complex_1","map_url":"https://www.google.com/maps?q=-39.262833,177.864469","latitude":"-39.262833","longitude":"177.864469","location":{"id":10,"url":"https://ll.thespacedevs.com/2.2.0/location/10/","name":"Rocket Lab Launch Complex 1, Mahia Peninsula, New Zealand","country_code":"NZL","description":"Rocket Lab Launch Complex 1 is a commercial spaceport located close to Ahuriri Point at the southern tip of Māhia Peninsula, on the east coast of New Zealand's North Island. It is owned and operated by private spaceflight company Rocket Lab and supports launches of the company's Electron rocket for small satellites. With the launch of Electron on 25 May 2017, it became the first private spaceport to host an orbital launch attempt, and the first site in New Zealand to host an orbital launch attempt. With the Electron launch of 21 January 2018, it became the first private spaceport to host a successful orbital launch.","map_image":"https://thespacedevs-prod.nyc3.digitaloceanspaces.com/media/map_images/location_10_20200803142509.jpg","timezone_name":"Pacific/Auckland","total_launch_count":67,"total_landing_count":17},"country_code":"NZL","map_image":"https://thespacedevs-prod.nyc3.digitaloceanspaces.com/media/map_images/pad_185_20200803143540.jpg","total_launch_count":32,"orbital_launch_attempt_count":32},"webcast_live":false,"image":"https://thespacedevs-prod.nyc3.digitaloceanspaces.com/media/images/electron_image_20190705175640.jpeg","infographic":null,"program":[],"orbital_launch_attempt_count":7145,"location_launch_attempt_count":68,"pad_launch_attempt_count":33,"agency_launch_attempt_count":77,"orbital_launch_attempt_count_year":296,"location_launch_attempt_count_year":16,"pad_launch_attempt_count_year":8,"agency_launch_attempt_count_year":19,"type":"normal"},{"id":"c3116e20-3fad-47e7-bed9-5ab52e7cf196","url":"https://ll.thespacedevs.com/2.2.0/launch/c3116e20-3fad-47e7-bed9-5ab52e7cf196/","slug":"long-march-2d-unknown-payload","name":"Long March 2D | Unknown Payload","status":{"id":1,"name":"Go for Launch","abbrev":"Go","description":"Current T-0 confirmed by official or reliable sources."},"last_updated":"2025-12-04T17:00:02Z","net":"2025-12-09T03:40:00Z","window_end":"2025-12-09T03:56:00Z","window_start":"2025-12-09T03:33:00Z","net_precision":{"id":2,"name":"Hour","abbrev":"HR","description":"The T-0 is accurate to the hour."},"probability":null,"weather_concerns":null,"holdreason":"","failreason":"","hashtag":null,"launch_service_provider":{"id":88,"url":"https://ll.thespacedevs.com/2.2.0/agencies/88/","name":"China Aerospace Science and Technology Corporation","type":"Government"},"rocket":{"id":8833,"configuration":{"id":17,"url":"https://ll.thespacedevs.com/2.2.0/config/launcher/17/","name":"Long March 2D","family":"Long March","full_name":"Long March 2D","variant":"D"}},"mission":{"id":7424,"name":"Unknown Payload","description":"Details TBD.","launch_designator":null,"type":"Unknown","orbit":{"id":25,"name":"Unknown","abbrev":"N/A"},"agencies":[],"info_urls":[],"vid_urls":[]},"pad":{"id":22,"url":"https://ll.thespacedevs.com/2.2.0/pad/22/","agency_id":null,"name":"Launch Area 94 (SLS-2 / 603)","description":"","info_url":null,"wiki_url":"https://en.wikipedia.org/wiki/Jiuquan_Launch_Area_4","map_url":"https://www.google.com/maps?q=40.960482,100.298059","latitude":"40.960482","longitude":"100.298059","location":{"id":17,"url":"https://ll.thespacedevs.com/2.2.0/location/17/","name":"Jiuquan Satellite Launch Center, People's Republic of China","country_code":"CHN","description":"Jiuquan Satellite Launch Center is a Chinese spaceport located between the Ejin, Alxa, Inner Mongolia and Hangtian Town, Jinta County, Jiuquan, Gansu Province. It is part of the Dongfeng Aerospace City (Base 10).","map_image":"https://thespacedevs-prod.nyc3.digitaloceanspaces.com/media/map_images/location_17_20200803142429.jpg","timezone_name":"Asia/Shanghai","total_launch_count":268,"total_landing_count":1},"country_code":"CHN","map_image":"https://thespacedevs-prod.nyc3.digitaloceanspaces.com/media/map_images/pad_22_20200803143437.jpg","total_launch_count":130,"orbital_launch_attempt_count":130},"webcast_live":false,"image":"https://thespacedevs-prod.nyc3.digitaloceanspaces.com/media/images/long2520march25202d_image_20190222031211.jpeg","infographic":null,"program":[],"orbital_launch_attempt_count":7146,"location_launch_attempt_count":269,"pad_launch_attempt_count":131,"agency_launch_attempt_count":561,"orbital_launch_attempt_count_year":297,"location_launch_attempt_count_year":30,"pad_launch_attempt_count_year":12,"agency_launch_attempt_count_year":60,"type":"normal"}]}